---------------------------------------------------------------------------------------------------------------------------------------------------------------------------------
Spectrum  |     Observed  |       Ritz    |  Rel. |    Aki    | Acc. |      Ei           Ek      |       Lower level       |       Upper level       |Type|    TP  |      Line  |
          |    Wavelength |    Wavelength |  Int. |    s^-1   |      |    (cm-1)       (cm-1)    |-------------------------|-------------------------|    |   Ref. |      Ref.  |
          |     Air (nm)  |     Air (nm)  |  (?)  |           |      |                           | Conf.      | Term | J   | Conf.      | Term | J   |    |        |            |
---------------------------------------------------------------------------------------------------------------------------------------------------------------------------------
          |               |               |       |           |      |                           |            |      |     |            |      |     |    |        |            |
Cd II     |    402.912    |               |   100 |           |      |                           |            |      |     |            |      |     |    |        |     L3540  |
Cd II     |    413.477    |               |   200 |           |      |                           |            |      |     |            |      |     |    |        |     L3540  |
Cd I      |    414.02988  |    414.0302+  |       | 4.7e+06   |      | 43692.384   -  67838.401  | 4d10.5s.5p | 1P*  | 1   | 4d10.5s.7d | 1D   | 2   |    |  T3464 |  L3486c92  |
Cd II     |    414.149    |               |    50 |           |      |                           |            |      |     |            |      |     |    |        |     L3540  |
Cd II     |    428.508    |               |   100 |           |      |                           |            |      |     |            |      |     |    |        |     L3540  |
          |               |               |       |           |      |                           |            |      |     |            |      |     |    |        |            |
Cd I      |    430.66718  |    430.6672+  |     8 |           |      | 43692.384   -  66905.641  | 4d10.5s.5p | 1P*  | 1   | 4d10.5s.8s | 1S   | 0   |    |        |     L3486  |
Cd II     |    441.241    |               |   100 |           |      |                           |            |      |     |            |      |     |    |        |     L3540  |
Cd I      |    441.29894  |    441.2989+  |     3 |           |      | 30656.087   -  53310.101  | 4d10.5s.5p | 3P*  | 1   | 4d10.5s.6s | 1S   | 0   |    |        |     L3486  |
Cd II     |    441.563    |               |  1000 | 1.4e+06   |      |                           |            |      | 3/2 |            |      | 5/2 |    |  T3464 |     L3540  |
Cd II     |    444.045    |               |    30 |           |      |                           |            |      |     |            |      |     |    |        |     L3540  |
          |               |               |       |           |      |                           |            |      |     |            |      |     |    |        |            |
Cd I      |    466.23520  |    466.2352+  |     8 | 5.5e+06   |      | 43692.384   -  65134.783  | 4d10.5s.5p | 1P*  | 1   | 4d10.5s.6d | 1D   | 2   |    |  T3464 |     L3486  |
Cd I      |    467.81493  |    467.8150+  |   200 | 1.3e+07   |      | 30113.990   -  51483.980  | 4d10.5s.5p | 3P*  | 0   | 4d10.5s.6s | 3S   | 1   |    |  T3464 |     L3486  |
Cd II     |    474.469    |               |    30 |           |      |                           |            |      |     |            |      |     |    |        |     L3540  |
Cd I      |    479.99123  |    479.9912+  |   300 | 4.1e+07   |      | 30656.087   -  51483.980  | 4d10.5s.5p | 3P*  | 1   | 4d10.5s.6s | 3S   | 1   |    |  T3464 |     L3486  |
Cd II     |    488.172    |               |    50 |           |      |                           |            |      |     |            |      |     |    |        |     L3540  |
          |               |               |       |           |      |                           |            |      |     |            |      |     |    |        |            |
Cd II     |    502.550    |               |    50 |           |      |                           |            |      |     |            |      |     |    |        |     L3540  |
Cd I      |    508.58217  |    508.5821+  | 1000w | 5.6e+07   |      | 31826.952   -  51483.980  | 4d10.5s.5p | 3P*  | 2   | 4d10.5s.6s | 3S   | 1   |    |  T3464 |     L3486  |
Cd I      |    515.46605  |    515.4662+  |     6 |           |      | 43692.384   -  63086.896  | 4d10.5s.5p | 1P*  | 1   | 4d10.5s.7s | 1S   | 0   |    |        |     L3486  |
Cd II     |    526.801    |               |   100 |           |      |                           |            |      |     |            |      |     |    |        |     L3540  |
Cd II     |    527.160    |               |   100 |           |      |                           |            |      |     |            |      |     |    |        |     L3540  |
          |               |               |       |           |      |                           |            |      |     |            |      |     |    |        |            |
Cd II     |    533.748    |               |  1000 |           |      |                           |            |      |     |            |      |     |    |        |     L3540  |
Cd II     |    537.813    |               |  1000 |           |      |                           |            |      |     |            |      |     |    |        |     L3540  |
Cd II     |    538.189    |               |   200 |           |      |                           |            |      |     |            |      |     |    |        |     L3540  |
Cd II     |    584.330    |               |    40 |           |      |                           |            |      |     |            |      |     |    |        |     L3540  |
Cd II     |    588.022    |               |    50 |           |      |                           |            |      |     |            |      |     |    |        |     L3540  |
          |               |               |       |           |      |                           |            |      |     |            |      |     |    |        |            |
Cd I      |    609.91421  |    609.914+   |   300 |           |      | 51483.980   -  67875.191  | 4d10.5s.6s | 3S   | 1   | 4d10.5s.8p | 3P*  | 2   |    |        |     L3486  |
Cd I      |    611.1495   |    611.15+    |   100 |           |      | 51483.980   -  67842.06   | 4d10.5s.6s | 3S   | 1   | 4d10.5s.8p | 3P*  | 1   |    |        |     L3486  |
Cd I      |    632.51661  |    632.517+   |   100 |           |      | 43692.384   -  59497.868  | 4d10.5s.5p | 1P*  | 1   | 4d10.5s.5d | 3D   | 2   |    |        |     L3486  |
Cd I      |    633.00133  |    633.001+   |    30 |           |      | 43692.384   -  59485.768  | 4d10.5s.5p | 1P*  | 1   | 4d10.5s.5d | 3D   | 1   |    |        |     L3486  |
Cd II     |    635.472    |               |   400 |           |      |                           |            |      |     |            |      |     |    |        |     L3540  |
          |               |               |       |           |      |                           |            |      |     |            |      |     |    |        |            |
Cd II     |    635.998    |               |   500 |           |      |                           |            |      |     |            |      |     |    |        |     L3540  |
Cd I      |    643.84695  |    643.847+   |  2000 | 5.9e+07   |      | 43692.384   -  59219.734  | 4d10.5s.5p | 1P*  | 1   | 4d10.5s.5d | 1D   | 2   |    |  T3464 |     L3486  |
Cd II     |    646.494    |               |   400 |           |      |                           |            |      |     |            |      |     |    |        |     L3540  |
Cd II     |    656.765    |               |    25 |           |      |                           |            |      |     |            |      |     |    |        |     L3540  |
Cd II     |    672.578    |               |   500 |           |      |                           |            |      |     |            |      |     |    |        |     L3540  |
          |               |               |       |           |      |                           |            |      |     |            |      |     |    |        |            |
Cd II     |    675.919    |               |   100 |           |      |                           |            |      |     |            |      |     |    |        |     L3540  |
Cd I      |    677.81157  |    677.812+   |    30 |           |      | 53310.101   -  68059.393  | 4d10.5s.6s | 1S   | 0   | 4d10.5s.8p | 1P*  | 1   |    |        |     L3486  |
Cd II     |    723.701    |               |    50 |           |      |                           |            |      |     |            |      |     |    |        |     L3540  |
Cd II     |    728.438    |               |   100 |           |      |                           |            |      |     |            |      |     |    |        |     L3540  |
Cd I      |    734.56704  |    734.566+   |  1000 |           |      | 51483.980   -  65093.702  | 4d10.5s.6s | 3S   | 1   | 4d10.5s.7p | 3P*  | 2   |    |        |     L3486  |
          |               |               |       |           |      |                           |            |      |     |            |      |     |    |        |            |
Cd II     |    806.699    |               |    50 |           |      |                           |            |      |     |            |      |     |    |        |     L3540  |
Cd I      |    820.03089  |    820.031+   |     5 |           |      | 53310.101   -  65501.412  | 4d10.5s.6s | 1S   | 0   | 4d10.5s.7p | 1P*  | 1   |    |        |     L3486  |
Cd I      |    929.2      |    928.3+     |   20* |           |      | 58635.7     -  69405.160  | 4d10.5s.6p | 3P*  | 2   | 4d10.5s.8d | 3D   | 3   |    |        |     L7381  |
Cd I      |    929.2      |    928.5+     |   20* |           |      | 58635.7     -  69402.583  | 4d10.5s.6p | 3P*  | 2   | 4d10.5s.8d | 3D   | 2   |    |        |     L7381  |
Cd I      |    929.2      |    928.7+     |   20* |           |      | 58635.7     -  69400.900  | 4d10.5s.6p | 3P*  | 2   | 4d10.5s.8d | 3D   | 1   |    |        |     L7381  |
---------------------------------------------------------------------------------------------------------------------------------------------------------------------------------
